{
    "strong":"Lorem ipsum dolor",
    "text":"Lorem ipsum dolor",
    
    "strong01":"Lorem ipsum dolor",
    "text01":"Lorem ipsum dolor",
    
    "strong02":"Lorem ipsum dolor",
    "text02":"Lorem ipsum dolor",
    
    "strong03":"Lorem ipsum dolor",
    "text03":"Lorem ipsum dolor"
}