{
    "id":"",
    
    "headline":{
        "text":"A Real Innovation"
    },
    
    "icon-text1": {
        "icon":{
            "image":"check.png",
            "title":"",
            "alt-text":""
        },

        "link":{
            "text":"Safe absolute positioning according to SIL 3/PL e with only one single sensor"
        }
    },
    
    "icon-text2": {
        "icon":{
            "image":"check.png",
            "title":"",
            "alt-text":""
        },

        "link":{
            "text":"Multiple-redundant technology combines safe firmware, 2-D read head, and two-color Data Matrix code band"
        }
    },
    
    "icon-text3": {
        "icon":{
            "image":"check.png",
            "title":"",
            "alt-text":""
        },

        "link":{
            "text":"Direct and safe data transfer to safety PLC via PROFINET PROFIsafe protocol—without any additional function block needed"
        }
    },
    
    "icon-text4": {
        "icon":{
            "image":"check.png",
            "title":"",
            "alt-text":""
        },

        "link":{
            "text":"Compliance with the Machinery Directive in order to protect human and machine is easier than ever"
        }
    },
    
    "icon-text5": {
        "icon":{
            "image":"",
            "title":"",
            "alt-text":""
        },

        "link":{
            "text":""
        }
    }
}