{
    "id":"",
    
    "icon-h3":{ 
        "icon":{
            "image":"download.png"
        },

        "label":{
            "text":"Downloads"
        }
    },
    
    "link-list01":{    
        "link":{
            "link":"",
            "alt":"",
            "title":"",
            "text":"Lorem ipsum dolor sit amet"
        }
    },
    
    "link-list02":{    
        "link":{
            "link":"",
            "alt":"",
            "title":"",
            "text":"Lorem ipsum dolor sit amet"
        }
    }
}