{
    "id":"",
    
    "headline":{
        "text":"Maximum Safety—A Good Feeling"
    },
    
    "text01":{
        "text":"Safety applications according to 'SIL 3/PL e' require strict compliance with the highest safety directives in order to optimally protect humans and machines at all times. While this safety level was previously associated with high cost and time investment, users now realize it more simply than ever before—with our new and worldwide unique 'safePXV' and 'safePGV' positioning systems."
    },
    
    "text02":{
        "text":"Based on a multi-redundant technology, these systems enable safe absolute positioning according to SIL 3/PL e with one single sensor for the first time. safePXV offers the perfect solution for linear absolute positioning; safePGV for reliable navigation of automated guided vehicles (AGVs). Rely on this innovative sensor technology for maximum safety!"
    },
    
    "text03":{
        "text":""
    }
}