{
    "headline":{
       "tag": "h2", 
       "modifier": "font--h2-invoice",
       "text": "Rechtliche Bestimmung"    
    },
    
    "checkbox":{        
        "modifier": "input-checkbox",
        "status": ""
    },
    
    "text":{        
       "tag": "p", 
       "text": "Der Käufer stimmt durch Klicken der Schaltfläche 'kostenpflichtig bestellen' den Liefer- und Zahlungsbedigungen des Pepperl+Fuchs Online-Portals zu. Der Käufer hat zur Kenntnis genommen, dass die Preise, die angezeigt werden, die Listenpreise sind. Rabatte, Steuern, Zölle, Versandkosten etc. werden nicht angezeigt. Die kundenspezifischen Preise des Käufers werden im Angebot oder der Auftragsbestätigung genannt. Der Käufer nimmt zur Kenntnis, dass sämtliche angegebenen Lagerbestände erst zum Zeitpunkt der Bestellung durch die Auftragsbestätigung verbindlich werden."    
    },
    
    "link":{
        "link":"",
        "function":"",
        "text":"AGB/Konditionen",
        "modifier":"link"    
    },
    
    "link2":{
        "link":"",
        "function":"",
        "text":"Allgemeine Lieferbedingungen",
        "modifier":"link"    
    },
    
    "link3":{
        "link":"",
        "function":"",
        "text":"Ergänzungen zu den Allgemeinen Lieferbedingungen",
        "modifier":"link"    
    }
    
}