{
    "h2":{
        "text":"Contact Us"
    },

    "p":{
        "class":"subtitle",
        "text":"Simply send us an email if you need more information on our purge and pressurization solutions"
    },
    
    "select01":{
        "id": "",
        "name": "",

        "valueopt01":"",
        "idxopt01": "",
        "nameopt01": "",
        "textopt01": "Please select",

        "valueopt02": "Herr",
        "idxopt02": "",
        "idopt02":"",
        "textopt02": "Mr.",

        "valueopt03": "Frau",
        "idxopt03": "",
        "idopt03":"",
        "textopt03": "Mrs./Ms."

    },
    
    "vorname":{
        "id": "",
        "name": "",
        "placeholder":"First Name"
    },
    
    "nachname":{
        "id": "",
        "name": "",
        "placeholder":"Last Name"
    },
    
    "firma":{
        "id": "",
        "name": "",
        "placeholder":"Company"
    },
    
    "plz":{
        "id": "",
        "name": "",
        "placeholder":"ZIP Code/Postal Code"
    },
    
    "stadt":{
        "id": "",
        "name": "",
        "placeholder":"City"
    },
    
    "select02":{
        "id": "",
        "name": "",

        "valueopt01":"",
        "idxopt01": "",
        "nameopt01": "",
        "textopt01": "Please select",

        "valueopt02": "Österreich",
        "idxopt02": "",
        "idopt02":"",
        "textopt02": "Austria",

        "valueopt03": "Deutschland",
        "idxopt03": "",
        "idopt03":"",
        "textopt03": "Germany"
    },
    
    "placeholder":{
        
    },
    
    "telefon":{
        "id": "",
        "name": "",
        "placeholder":"Telephone"
    },
    
    "mail":{
        "id": "",
        "name": "",
        "placeholder":"E-Mail"
    },
    
    "message":{
        "id":"",
        "name":"",
        "placeholder":"Your message..."
    },
    
    "button":{
        "text":"Senden"
    },

    
    
    
    
    
    
    
    
    "placeholder":{
        "modifier": "placeholder--form01"
    },
    
    "text-area-block":{
    
        "textfield1":{        
            "type": "text",
            "modifier": "input--textfield",
            "placeholder": "Telephone"      
        },
    
        "textfield2":{
            "type": "text",
            "modifier": "input--textfield",
            "placeholder": "E-Mail"       
        },

        "textarea":{
          
        },
        "button":{
            "tag": "a",    
            "link": "",    
            "modifier": "button--submit-neu-form",  
            "text": "Senden" 
        }
    },
    "placeholder":{
        "modifier": "placeholder--form01"
    }
    
    
}