{    
    "headline":{
       "tag": "p", 
       "text": "Pepperl+Fuchs Online-Konto erstellen",
        "modifier": "font--h1-green"
    },
    
    "text1":{
        "class":"",
        "text":"Vielen Dank für Ihr Interesse an unserem Online-Konto."
    },
    
    "text2":{
        "class":"",
        "text":"Bitte geben Sie nachfolgend die für die Registrierung notwendigen Daten ein. Sie erhalten innerhalb eines Werktages eine Rückmeldung."
    },
    
    "anrede":{    
        "label":{
            "for": "",
            "text": "Anrede"
        },

        "dropdown":{
            "id": "",
            "name": "",

            "valueopt01":"",
            "idxopt01": "",
            "nameopt01": "",
            "textopt01": "Bitte auswählen",

            "valueopt02": "Herr",
            "idxopt02": "",
            "idopt02":"",
            "textopt02": "Mr.",

            "valueopt03": "Frau",
            "idxopt03": "",
            "idopt03":"",
            "textopt03": "Mrs./Ms."

        } 
    },
    
    "vorname":{
        "label":{
            "for": "",
            "text": "Vorname"
        },
        "textfield":{
            "id": "",
            "name": "",
            "placeholder":""
        }
    },
    
    "nachname":{
        "label":{
            "for": "",
            "text": "Nachname"
        },
        "textfield":{
            "id": "",
            "name": "",
            "placeholder":""
        }
    },
    
    "unternehmen":{
        "label":{
            "for": "",
            "text": "Unternehmen"
        },
        "textfield":{
            "id": "",
            "name": "",
            "placeholder":""
        }
    },
    
    "Idnr":{
        "label":{
            "for": "",
            "text": "Umsatzsteuer Ident Nummer"
        },
        "textfield":{
            "id": "",
            "name": "",
            "placeholder":""
        }
    },
    
    "email":{
        "label":{
            "for": "",
            "text": "Persönliche E-Mail Adresse"
        },
        "textfield":{
            "id": "",
            "name": "",
            "placeholder":""
        }
    },
    
    "tele":{
        "label":{
            "for": "",
            "text": "Telefon"
        },
        "textfield":{
            "id": "",
            "name": "",
            "placeholder":""
        }
    },
    
    "plz":{
        "label":{
            "for": "",
            "text": "Postleitzahl"
        },
        "textfield":{
            "id": "",
            "name": "",
            "placeholder":""
        }
    },
    
    "ort":{
        "label":{
            "for": "",
            "text": "Ort"
        },
        "textfield":{
            "id": "",
            "name": "",
            "placeholder":""
        }
    },
    
    "straße":{
        "label":{
            "for": "",
            "text": "Straße"
        },
        "textfield":{
            "id": "",
            "name": "",
            "placeholder":""
        }
    },
    
     "land":{    
        "label":{
            "for": "",
            "text": "Land"
        },

        "dropdown":{
            "id": "",
            "name": "",

            "valueopt01":"",
            "idxopt01": "",
            "nameopt01": "",
            "textopt01": "Bitte auswählen",

            "valueopt02": "Österreich",
            "idxopt02": "",
            "idopt02":"",
            "textopt02": "Austria",

            "valueopt03": "Deutschland",
            "idxopt03": "",
            "idopt03":"",
            "textopt03": "Germany"

        } 
    },
    
    "button":{
        "text":"Registrieren"
    }

}