{
    
    "fieldset":{
        "id":"",
        "name":""
    },
    "legend":{
        "text":"Ex-Broschüren"
    },
    

    "radiobuttongroup":{        
            "radiobutton1":{

                "radiobutton":{    
                    "idx": "",
                    "value": "",
                    "name": "",
                    "id": "",
                    "status": ""
                },
                "label":{
                    "class": "",
                    "for": "",
                    "text": "Label 1"
                }
            },

            "radiobutton2":{

                "radiobutton":{    
                    "idx": "",
                    "value": "",
                    "name": "",
                    "id": "",
                    "status": ""
                },
                "label":{
                    "class": "",
                    "for": "",
                    "text": "Label 2"
                }
            }
    }
}
