{
    "headline":{
        "tag": "h1", 
        "modifier": "font--h1-shopping-cart",
        "text": "Als Gast bestellen" 
    },
    
    "headline2":{
       "tag": "p", 
       "text": "Geben Sie Ihre E-Mail-Adresse ein, um Ihre Bestellung im Pepperl+Fuchs Online-Shop abzuschließen."    
    },
    
    "email":{
        "label":{
            "text": "E-Mail-Adresse",
            "modifier": "label--textfield"
        },

        "textfield":{
            "type": "text",
            "modifier": "input--textfield-label"
        }
    }, 
    
    
    "button":{
        "tag": "a",    
        "link": "",    
        "modifier": "button--login-shopping-cart",  
        "text": "Als Gast bestellen" 
    },
    
    "text":{
       "tag": "p", 
       "text": "Haben Sie bereits ein Konto für das Pepperl+Fuchs Online-Portal?",
        "modifier": "font--shopping-cart-login"
    },
    
    "button2":{
        "tag": "a",    
        "link": "",    
        "text": "Anmelden", 
        "modifier": "button-konto--shopping-cart"
    },
    
    "link":{
        "link":"",
        "function":"",
        "text":"Registrieren Sie sich jetzt!",
        "modifier":"link"
    }
}