{
    "background_change":"",
    "id":"",
    
    "container-left":{
        "id":"",

        "headline":{
            "text":"Quick Diagnostics, Maximum Transparency"
        },

        "text01":{
            "text":"The modules maintain maximum process transparency: Diagnostic parameters can be monitored directly from the module through a web interface or communicated back to the PLC. An integrated web server allows to access the device directly through a web browser, making it possible to view important information and change network parameters such as IP addresses and subnet masks."
        },

        "text02":{
            "text":"LEDs are available on the modules, providing continuous status information and enabling channel-specific diagnosis. This increases productivity by allowing faults to be detected and fixed more efficiently."
        },

        "text03":{
            "text":""
        }  

    },
    
    "container-right":{
        "class":"right",
        "id":"",

        "headline":{
            "text":"&nbsp;"
        },

        "picture":{
            "image":"image_container_twice light.jpg"
        }
    }
    
}