{
    "id":"",
    
    "container-left":{
        "id":"",

        "headline":{
            "text":"Maximum Safety—A Good Feeling",
            "modifier":"mlp-h2--container-left"
        },

        "text01":{
            "text":"Safety applications according to 'SIL 3/PL e' require strict compliance with the highest safety directives in order to optimally protect humans and machines at all times. While this safety level was previously associated with high cost and time investment, users now realize it more simply than ever before—with our new and worldwide unique 'safePXV' and 'safePGV' positioning systems.",
            "modifier":"mlp-p--container-left"
        },

        "text02":{
            "text":"Based on a multi-redundant technology, these systems enable safe absolute positioning according to SIL 3/PL e with one single sensor for the first time. safePXV offers the perfect solution for linear absolute positioning; safePGV for reliable navigation of automated guided vehicles (AGVs). Rely on this innovative sensor technology for maximum safety!",
            "modifier":"mlp-p--container-left"
        },

        "text03":{
            "text":"",
            "modifier":"mlp-p--container-left"
        }
    },
    
    "container-right":{
        "id":"",

        "headline":{
            "text":"A Real Innovation"
        },

        "icon-text1": {
            "icon":{
                "image":"check.png",
                "title":"",
                "alt-text":""
            },

            "link":{
                "text":"Safe absolute positioning according to SIL 3/PL e with only one single sensor"
            }
        },

        "icon-text2": {
            "icon":{
                "image":"check.png",
                "title":"",
                "alt-text":""
            },

            "link":{
                "text":"Multiple-redundant technology combines safe firmware, 2-D read head, and two-color Data Matrix code band"
            }
        },

        "icon-text3": {
            "icon":{
                "image":"check.png",
                "title":"",
                "alt-text":""
            },

            "link":{
                "text":"Direct and safe data transfer to safety PLC via PROFINET PROFIsafe protocol—without any additional function block needed"
            }
        },

        "icon-text4": {
            "icon":{
                "image":"check.png",
                "title":"",
                "alt-text":""
            },

            "link":{
                "text":"Compliance with the Machinery Directive in order to protect human and machine is easier than ever"
            }
        }
    }
}