{
    "background_change":"",
    "id":"",
    
    "container-left":{
        "class":"left",
        "id":"",

        "headline":{
            "text":"Sensorik4.0®: Future-Proof Automation with IO-Link"
        },

        "picture":{
            "image":"image_highlights.jpg"
        }
    },
    
    "container-right":{
        "id":"",

        "headline":{
            "text":"Highlights of the IO-Link Master"
        },

        "icon-text1": {
            "icon":{
                "image":"check.png",
                "title":"",
                "alt-text":""
            },

            "link":{
                "text":"Enables continuous diagnostics and parameterization right down into the sensor/actuator level"
            }
        },

        "icon-text2": {
            "icon":{
                "image":"check.png",
                "title":"",
                "alt-text":""
            },

            "link":{
                "text":"Simplifies device replacement and commissioning: Automatic transfer of preconfigured parameters when several sensors are connected."
            }
        },

        "icon-text3": {
            "icon":{
                "image":"check.png",
                "title":"",
                "alt-text":""
            },

            "link":{
                "text":"Supports 8 IO-Link channels for sensors (Type A) and actuators (Type B)"
            }
        },

        "icon-text4": {
            "icon":{
                "image":"check.png",
                "title":"",
                "alt-text":""
            },

            "link":{
                "text":"Is based on simple and economical wiring with unshielded standard cables"
            }
        },
        
        "icon-text5": {
            "icon":{
                "image":"check.png",
                "title":"",
                "alt-text":""
            },

            "link":{
                "text":"Is future-proof thanks to IO-Link standard IEC 61131-9"
            }
        }
    }
    
    
}