{
    "image":{
        "image":"eyecatcher.jpg"
    },
    
    "block":{
        "dreiklang01":{
            "row01":"Leading the way.",
            "row02":"Reinventing positioning.",
            "row03":"Revolutionizing safety."
        },    
        "dreiklang02":{
            "strong":"safe",
            "text":"PXV and ",
            "strong01":"safe",
            "text01":"PGV",
            "strong02":"",
            "text02":"SIL 3/PL e Absolute Positioning ",
            "strong03":"",
            "text03":"Systems"
        }
    }
}