{
    "id": "",
    "name": "",
    
    "valueopt01":"",
    "idxopt01": "",
    "nameopt01": "",
    "textopt01": "",
    
    "valueopt02": "Herr",
    "idxopt02": "",
    "idopt02":"",
    "textopt02": "Mr.",
    
    "valueopt03": "Frau",
    "idxopt03": "",
    "idopt03":"",
    "textopt03": "Mrs./Ms."
 
}