{
    
    "label":{
        "text": "Label"
    },
    
    "dropdown":{
        
    "text": "Bitte auswählen",
    "option": "Bitte auswählen",
    "option1": "Option 1",
    "option2": "Option 2",
    "option3": "Option 3",
    "option4": "Option 4",
        "modifier":"select-dropdown-label-top"

    }
    
    
}
