{
    "label":{
        "for": "",
        "text": "Lorem ipsum dolor"
    },
    "textfield":{
        "id": "",
        "name": "",
        "placeholder":""
    },
    
    "error_text":"* Dieses Feld ist ein Pflichtfeld"
}