0 info it worked if it ends with ok
1 verbose cli [ 'C:\\Program Files\\nodejs\\node.exe',
1 verbose cli   'C:\\Program Files\\nodejs\\node_modules\\npm\\bin\\npm-cli.js',
1 verbose cli   'install',
1 verbose cli   '[starterkit-vendor/starterkit-twig-base-master]' ]
2 info using npm@3.10.10
3 info using node@v6.11.3
4 silly loadCurrentTree Starting
5 silly install loadCurrentTree
6 silly install readLocalPackageData
7 silly fetchPackageMetaData [starterkit-vendor/starterkit-twig-base-master]
8 silly fetchOtherPackageData [starterkit-vendor/starterkit-twig-base-master]
9 silly cache add args [ '[starterkit-vendor/starterkit-twig-base-master]', null ]
10 verbose cache add spec [starterkit-vendor/starterkit-twig-base-master]
11 silly cache add parsed spec Result {
11 silly cache add   raw: '[starterkit-vendor/starterkit-twig-base-master]',
11 silly cache add   scope: null,
11 silly cache add   escapedName: null,
11 silly cache add   name: null,
11 silly cache add   rawSpec: '[starterkit-vendor/starterkit-twig-base-master]',
11 silly cache add   spec: 'github:/%5Bstarterkit-vendor%2Fstarterkit-twig-base-master%5D',
11 silly cache add   type: 'hosted',
11 silly cache add   hosted:
11 silly cache add    { type: 'github',
11 silly cache add      ssh: 'git@github.com:/%5Bstarterkit-vendor%2Fstarterkit-twig-base-master%5D.git',
11 silly cache add      sshUrl: 'git+ssh://git@github.com//%5Bstarterkit-vendor%2Fstarterkit-twig-base-master%5D.git',
11 silly cache add      httpsUrl: 'git+https://github.com//%5Bstarterkit-vendor%2Fstarterkit-twig-base-master%5D.git',
11 silly cache add      gitUrl: 'git://github.com//%5Bstarterkit-vendor%2Fstarterkit-twig-base-master%5D.git',
11 silly cache add      shortcut: 'github:/%5Bstarterkit-vendor%2Fstarterkit-twig-base-master%5D',
11 silly cache add      directUrl: 'https://raw.githubusercontent.com//%5Bstarterkit-vendor%2Fstarterkit-twig-base-master%5D/master/package.json' } }
12 verbose addRemoteGit caching [starterkit-vendor/starterkit-twig-base-master]
13 verbose addRemoteGit /%5Bstarterkit-vendor%2Fstarterkit-twig-base-master%5D is a repository hosted by github
14 silly tryGitProto attempting to clone git://github.com//%5Bstarterkit-vendor%2Fstarterkit-twig-base-master%5D.git
15 silly tryClone cloning /%5Bstarterkit-vendor%2Fstarterkit-twig-base-master%5D via git://github.com//%5Bstarterkit-vendor%2Fstarterkit-twig-base-master%5D.git
16 verbose tryClone git-github-com-5Bstarterkit-vendor-2Fstarterkit-twig-base-master-5D-git-ec35a009 not in flight; caching
17 verbose correctMkdir C:\Users\dguetinger\AppData\Roaming\npm-cache\_git-remotes correctMkdir not in flight; initializing
18 info git [ 'clone',
18 info git   '--template=C:\\Users\\dguetinger\\AppData\\Roaming\\npm-cache\\_git-remotes\\_templates',
18 info git   '--mirror',
18 info git   'git://github.com//%5Bstarterkit-vendor%2Fstarterkit-twig-base-master%5D.git',
18 info git   'C:\\Users\\dguetinger\\AppData\\Roaming\\npm-cache\\_git-remotes\\git-github-com-5Bstarterkit-vendor-2Fstarterkit-twig-base-master-5D-git-ec35a009' ]
19 verbose git clone --template=C:\Users\dguetinger\AppData\Roaming\npm-cache\_git-remotes\_templates --mirror git://github.com//%5Bstarterkit-vendor%2Fstarterkit-twig-base-master%5D.git C:\Users\dguetinger\AppData\Roaming\npm-cache\_git-remotes\git-github-com-5Bstarterkit-vendor-2Fstarterkit-twig-base-master-5D-git-ec35a009: Cloning into bare repository 'C:\Users\dguetinger\AppData\Roaming\npm-cache\_git-remotes\git-github-com-5Bstarterkit-vendor-2Fstarterkit-twig-base-master-5D-git-ec35a009'...
19 verbose git clone --template=C:\Users\dguetinger\AppData\Roaming\npm-cache\_git-remotes\_templates --mirror git://github.com//%5Bstarterkit-vendor%2Fstarterkit-twig-base-master%5D.git C:\Users\dguetinger\AppData\Roaming\npm-cache\_git-remotes\git-github-com-5Bstarterkit-vendor-2Fstarterkit-twig-base-master-5D-git-ec35a009: fatal: unable to connect to github.com:
19 verbose git clone --template=C:\Users\dguetinger\AppData\Roaming\npm-cache\_git-remotes\_templates --mirror git://github.com//%5Bstarterkit-vendor%2Fstarterkit-twig-base-master%5D.git C:\Users\dguetinger\AppData\Roaming\npm-cache\_git-remotes\git-github-com-5Bstarterkit-vendor-2Fstarterkit-twig-base-master-5D-git-ec35a009: github.com[0: 192.30.253.113]: errno=Invalid argument
19 verbose git clone --template=C:\Users\dguetinger\AppData\Roaming\npm-cache\_git-remotes\_templates --mirror git://github.com//%5Bstarterkit-vendor%2Fstarterkit-twig-base-master%5D.git C:\Users\dguetinger\AppData\Roaming\npm-cache\_git-remotes\git-github-com-5Bstarterkit-vendor-2Fstarterkit-twig-base-master-5D-git-ec35a009: github.com[1: 192.30.253.112]: errno=Invalid argument
20 silly tryHTTPS attempting to clone git+https://github.com//%5Bstarterkit-vendor%2Fstarterkit-twig-base-master%5D.git
21 silly tryClone cloning /%5Bstarterkit-vendor%2Fstarterkit-twig-base-master%5D via git+https://github.com//%5Bstarterkit-vendor%2Fstarterkit-twig-base-master%5D.git
22 verbose tryClone git-https-github-com-5Bstarterkit-vendor-2Fstarterkit-twig-base-master-5D-git-b97373d0 not in flight; caching
23 verbose correctMkdir C:\Users\dguetinger\AppData\Roaming\npm-cache\_git-remotes correctMkdir not in flight; initializing
24 info git [ 'clone',
24 info git   '--template=C:\\Users\\dguetinger\\AppData\\Roaming\\npm-cache\\_git-remotes\\_templates',
24 info git   '--mirror',
24 info git   'https://github.com//%5Bstarterkit-vendor%2Fstarterkit-twig-base-master%5D.git',
24 info git   'C:\\Users\\dguetinger\\AppData\\Roaming\\npm-cache\\_git-remotes\\git-https-github-com-5Bstarterkit-vendor-2Fstarterkit-twig-base-master-5D-git-b97373d0' ]
25 verbose git clone --template=C:\Users\dguetinger\AppData\Roaming\npm-cache\_git-remotes\_templates --mirror https://github.com//%5Bstarterkit-vendor%2Fstarterkit-twig-base-master%5D.git C:\Users\dguetinger\AppData\Roaming\npm-cache\_git-remotes\git-https-github-com-5Bstarterkit-vendor-2Fstarterkit-twig-base-master-5D-git-b97373d0: Cloning into bare repository 'C:\Users\dguetinger\AppData\Roaming\npm-cache\_git-remotes\git-https-github-com-5Bstarterkit-vendor-2Fstarterkit-twig-base-master-5D-git-b97373d0'...
25 verbose git clone --template=C:\Users\dguetinger\AppData\Roaming\npm-cache\_git-remotes\_templates --mirror https://github.com//%5Bstarterkit-vendor%2Fstarterkit-twig-base-master%5D.git C:\Users\dguetinger\AppData\Roaming\npm-cache\_git-remotes\git-https-github-com-5Bstarterkit-vendor-2Fstarterkit-twig-base-master-5D-git-b97373d0: fatal: unable to access 'https://github.com//%5Bstarterkit-vendor%2Fstarterkit-twig-base-master%5D.git/': The requested URL returned error: 400
26 silly trySSH attempting to clone git@github.com:/%5Bstarterkit-vendor%2Fstarterkit-twig-base-master%5D.git
27 silly tryClone cloning /%5Bstarterkit-vendor%2Fstarterkit-twig-base-master%5D via git@github.com:/%5Bstarterkit-vendor%2Fstarterkit-twig-base-master%5D.git
28 verbose tryClone git-github-com-5Bstarterkit-vendor-2Fstarterkit-twig-base-master-5D-git-343dbd46 not in flight; caching
29 verbose correctMkdir C:\Users\dguetinger\AppData\Roaming\npm-cache\_git-remotes correctMkdir not in flight; initializing
30 info git [ 'clone',
30 info git   '--template=C:\\Users\\dguetinger\\AppData\\Roaming\\npm-cache\\_git-remotes\\_templates',
30 info git   '--mirror',
30 info git   'git@github.com:/%5Bstarterkit-vendor%2Fstarterkit-twig-base-master%5D.git',
30 info git   'C:\\Users\\dguetinger\\AppData\\Roaming\\npm-cache\\_git-remotes\\git-github-com-5Bstarterkit-vendor-2Fstarterkit-twig-base-master-5D-git-343dbd46' ]
31 error git clone --template=C:\Users\dguetinger\AppData\Roaming\npm-cache\_git-remotes\_templates --mirror git@github.com:/%5Bstarterkit-vendor%2Fstarterkit-twig-base-master%5D.git C:\Users\dguetinger\AppData\Roaming\npm-cache\_git-remotes\git-github-com-5Bstarterkit-vendor-2Fstarterkit-twig-base-master-5D-git-343dbd46: Cloning into bare repository 'C:\Users\dguetinger\AppData\Roaming\npm-cache\_git-remotes\git-github-com-5Bstarterkit-vendor-2Fstarterkit-twig-base-master-5D-git-343dbd46'...
31 error git clone --template=C:\Users\dguetinger\AppData\Roaming\npm-cache\_git-remotes\_templates --mirror git@github.com:/%5Bstarterkit-vendor%2Fstarterkit-twig-base-master%5D.git C:\Users\dguetinger\AppData\Roaming\npm-cache\_git-remotes\git-github-com-5Bstarterkit-vendor-2Fstarterkit-twig-base-master-5D-git-343dbd46: Host key verification failed.
31 error git clone --template=C:\Users\dguetinger\AppData\Roaming\npm-cache\_git-remotes\_templates --mirror git@github.com:/%5Bstarterkit-vendor%2Fstarterkit-twig-base-master%5D.git C:\Users\dguetinger\AppData\Roaming\npm-cache\_git-remotes\git-github-com-5Bstarterkit-vendor-2Fstarterkit-twig-base-master-5D-git-343dbd46: fatal: Could not read from remote repository.
31 error git clone --template=C:\Users\dguetinger\AppData\Roaming\npm-cache\_git-remotes\_templates --mirror git@github.com:/%5Bstarterkit-vendor%2Fstarterkit-twig-base-master%5D.git C:\Users\dguetinger\AppData\Roaming\npm-cache\_git-remotes\git-github-com-5Bstarterkit-vendor-2Fstarterkit-twig-base-master-5D-git-343dbd46:
31 error git clone --template=C:\Users\dguetinger\AppData\Roaming\npm-cache\_git-remotes\_templates --mirror git@github.com:/%5Bstarterkit-vendor%2Fstarterkit-twig-base-master%5D.git C:\Users\dguetinger\AppData\Roaming\npm-cache\_git-remotes\git-github-com-5Bstarterkit-vendor-2Fstarterkit-twig-base-master-5D-git-343dbd46: Please make sure you have the correct access rights
31 error git clone --template=C:\Users\dguetinger\AppData\Roaming\npm-cache\_git-remotes\_templates --mirror git@github.com:/%5Bstarterkit-vendor%2Fstarterkit-twig-base-master%5D.git C:\Users\dguetinger\AppData\Roaming\npm-cache\_git-remotes\git-github-com-5Bstarterkit-vendor-2Fstarterkit-twig-base-master-5D-git-343dbd46: and the repository exists.
32 silly fetchPackageMetaData Error: Command failed: git -c core.longpaths=true clone --template=C:\Users\dguetinger\AppData\Roaming\npm-cache\_git-remotes\_templates --mirror git@github.com:/%5Bstarterkit-vendor%2Fstarterkit-twig-base-master%5D.git C:\Users\dguetinger\AppData\Roaming\npm-cache\_git-remotes\git-github-com-5Bstarterkit-vendor-2Fstarterkit-twig-base-master-5D-git-343dbd46
32 silly fetchPackageMetaData Cloning into bare repository 'C:\Users\dguetinger\AppData\Roaming\npm-cache\_git-remotes\git-github-com-5Bstarterkit-vendor-2Fstarterkit-twig-base-master-5D-git-343dbd46'...
32 silly fetchPackageMetaData Host key verification failed.
32 silly fetchPackageMetaData fatal: Could not read from remote repository.
32 silly fetchPackageMetaData
32 silly fetchPackageMetaData Please make sure you have the correct access rights
32 silly fetchPackageMetaData and the repository exists.
32 silly fetchPackageMetaData
32 silly fetchPackageMetaData     at ChildProcess.exithandler (child_process.js:198:12)
32 silly fetchPackageMetaData     at emitTwo (events.js:106:13)
32 silly fetchPackageMetaData     at ChildProcess.emit (events.js:191:7)
32 silly fetchPackageMetaData     at maybeClose (internal/child_process.js:920:16)
32 silly fetchPackageMetaData     at Process.ChildProcess._handle.onexit (internal/child_process.js:230:5)
32 silly fetchPackageMetaData  error for [starterkit-vendor/starterkit-twig-base-master] { Error: Command failed: git -c core.longpaths=true clone --template=C:\Users\dguetinger\AppData\Roaming\npm-cache\_git-remotes\_templates --mirror git@github.com:/%5Bstarterkit-vendor%2Fstarterkit-twig-base-master%5D.git C:\Users\dguetinger\AppData\Roaming\npm-cache\_git-remotes\git-github-com-5Bstarterkit-vendor-2Fstarterkit-twig-base-master-5D-git-343dbd46
32 silly fetchPackageMetaData Cloning into bare repository 'C:\Users\dguetinger\AppData\Roaming\npm-cache\_git-remotes\git-github-com-5Bstarterkit-vendor-2Fstarterkit-twig-base-master-5D-git-343dbd46'...
32 silly fetchPackageMetaData Host key verification failed.
32 silly fetchPackageMetaData fatal: Could not read from remote repository.
32 silly fetchPackageMetaData
32 silly fetchPackageMetaData Please make sure you have the correct access rights
32 silly fetchPackageMetaData and the repository exists.
32 silly fetchPackageMetaData
32 silly fetchPackageMetaData     at ChildProcess.exithandler (child_process.js:198:12)
32 silly fetchPackageMetaData     at emitTwo (events.js:106:13)
32 silly fetchPackageMetaData     at ChildProcess.emit (events.js:191:7)
32 silly fetchPackageMetaData     at maybeClose (internal/child_process.js:920:16)
32 silly fetchPackageMetaData     at Process.ChildProcess._handle.onexit (internal/child_process.js:230:5)
32 silly fetchPackageMetaData   killed: false,
32 silly fetchPackageMetaData   code: 128,
32 silly fetchPackageMetaData   signal: null,
32 silly fetchPackageMetaData   cmd: 'git -c core.longpaths=true clone --template=C:\\Users\\dguetinger\\AppData\\Roaming\\npm-cache\\_git-remotes\\_templates --mirror git@github.com:/%5Bstarterkit-vendor%2Fstarterkit-twig-base-master%5D.git C:\\Users\\dguetinger\\AppData\\Roaming\\npm-cache\\_git-remotes\\git-github-com-5Bstarterkit-vendor-2Fstarterkit-twig-base-master-5D-git-343dbd46' }
33 silly rollbackFailedOptional Starting
34 silly rollbackFailedOptional Finishing
35 silly runTopLevelLifecycles Finishing
36 silly install printInstalled
37 verbose stack Error: Command failed: git -c core.longpaths=true clone --template=C:\Users\dguetinger\AppData\Roaming\npm-cache\_git-remotes\_templates --mirror git@github.com:/%5Bstarterkit-vendor%2Fstarterkit-twig-base-master%5D.git C:\Users\dguetinger\AppData\Roaming\npm-cache\_git-remotes\git-github-com-5Bstarterkit-vendor-2Fstarterkit-twig-base-master-5D-git-343dbd46
37 verbose stack Cloning into bare repository 'C:\Users\dguetinger\AppData\Roaming\npm-cache\_git-remotes\git-github-com-5Bstarterkit-vendor-2Fstarterkit-twig-base-master-5D-git-343dbd46'...
37 verbose stack Host key verification failed.
37 verbose stack fatal: Could not read from remote repository.
37 verbose stack
37 verbose stack Please make sure you have the correct access rights
37 verbose stack and the repository exists.
37 verbose stack
37 verbose stack     at ChildProcess.exithandler (child_process.js:198:12)
37 verbose stack     at emitTwo (events.js:106:13)
37 verbose stack     at ChildProcess.emit (events.js:191:7)
37 verbose stack     at maybeClose (internal/child_process.js:920:16)
37 verbose stack     at Process.ChildProcess._handle.onexit (internal/child_process.js:230:5)
38 verbose cwd C:\Users\dguetinger\PatternlabTest\grunt-master\source
39 error Windows_NT 10.0.15063
40 error argv "C:\\Program Files\\nodejs\\node.exe" "C:\\Program Files\\nodejs\\node_modules\\npm\\bin\\npm-cli.js" "install" "[starterkit-vendor/starterkit-twig-base-master]"
41 error node v6.11.3
42 error npm  v3.10.10
43 error code 128
44 error Command failed: git -c core.longpaths=true clone --template=C:\Users\dguetinger\AppData\Roaming\npm-cache\_git-remotes\_templates --mirror git@github.com:/%5Bstarterkit-vendor%2Fstarterkit-twig-base-master%5D.git C:\Users\dguetinger\AppData\Roaming\npm-cache\_git-remotes\git-github-com-5Bstarterkit-vendor-2Fstarterkit-twig-base-master-5D-git-343dbd46
44 error Cloning into bare repository 'C:\Users\dguetinger\AppData\Roaming\npm-cache\_git-remotes\git-github-com-5Bstarterkit-vendor-2Fstarterkit-twig-base-master-5D-git-343dbd46'...
44 error Host key verification failed.
44 error fatal: Could not read from remote repository.
44 error
44 error Please make sure you have the correct access rights
44 error and the repository exists.
45 error If you need help, you may report this error at:
45 error     <https://github.com/npm/npm/issues>
46 verbose exit [ 1, true ]
